digraph {
    node [ shape="plaintext" ]

    Employee [ label=<
    <table border="0" cellborder="1" cellspacing="0">
        <tr><td colspan="2">function Employee</td></tr>
        <tr><td>bonus</td><td>10000</td></tr>
        <tr><td>__proto__</td><td port="__p"></td></tr>
        <tr><td>prototype</td><td port="p"></td></tr>
    </table>
    > ]

    Function_p[ label=<
    <table border="0" cellborder="1" cellspacing="0">
        <tr><td colspan="2">Function.prototype</td></tr>
        <tr><td>__proto__</td><td port="__p"></td></tr>
    </table>
    > ]

    Object_p[ label=<
    <table border="0" cellborder="1" cellspacing="0">
        <tr><td colspan="2">Object.prototype</td></tr>
        <tr><td>__proto__</td><td>null</td></tr>
    </table>
    > ]

    Employee_p [ label=<
        <table border="0" cellborder="1" cellspacing="0">
            <tr><td colspan="2">Employee.prototype</td></tr>
            <tr><td>constructor</td><td port="cons"></td></tr>
            <tr><td>salary</td><td>5000</td></tr>
            <tr><td>__proto__</td><td port="p4"></td></tr>
        </table>
    > ]

    cyril [ label=<
    <table border="0" cellborder="1" cellspacing="0">
        <tr><td colspan="2">cyril</td></tr>
        <tr><td>name</td><td>'Cyril'</td></tr>
        <tr><td>__proto__</td><td port="__p"></td></tr>
    </table>
    > ]

    david [ label=<
    <table border="0" cellborder="1" cellspacing="0">
        <tr><td colspan="2">david</td></tr>
        <tr><td>name</td><td>'David'</td></tr>
        <tr><td>__proto__</td><td port="__p"></td></tr>
    </table>
    > ]

    Employee:__p -> Function_p
    Employee:p -> Employee_p
    Employee_p:cons -> Employee
    Employee_p:__p -> Object_p
    cyril:__p -> Employee_p
    david:__p -> Employee_p
    Function_p:__p -> Object_p
}